module gatlaskeepr

go 1.19

require (
	golang.org/x/crypto v0.0.0-20220817201139-bc19a97f63c8 // indirect
	golang.org/x/sys v0.0.0-20210615035016-665e8c7367d1 // indirect
	golang.org/x/term v0.0.0-20201126162022-7de9c90e9dd1 // indirect
)
